;strategy_id;ids_competitions;name;end;duration;rank;status;score;prize;inSmpl;outSmpl
0;13097896;13361696;slow;01-11-2019;3;4;COMPLETED;1.55835970635394;166666.66;1.03483755775862;0.350620271797655
1;13097896;13383242;slow;01-02-2020;6;13;COMPLETED;1.2791837131231;125000.0;1.03483755775862;0.350620271797655
2;13097896;13383327;slow;01-05-2020;9;19;COMPLETED;-0.31393507830478;93750.0;1.03483755775862;0.350620271797655
3;13097896;13383412;slow;01-08-2020;12;6;RUNNING;0.432986511377264;74074.07;1.03483755775862;0.350620271797655
4;13465009;13494504;slow_slow_ml;01-04-2020;3;21;COMPLETED;-0.973404555233192;62500.0;1.17851429160838;-0.415943456879288
5;13465009;13494567;slow_slow_ml;01-07-2020;6;52;COMPLETED;-0.544450974360647;62500.0;1.17851429160838;-0.415943456879288
6;13465009;13494630;slow_slow_ml;01-10-2020;9;52;RUNNING;-0.467369618106659;55555.56;1.17851429160838;-0.415943456879288
7;13465009;13494634;slow_slow_ml;01-01-2021;12;52;RUNNING;-0.467369618106659;76923.08;1.17851429160838;-0.415943456879288
8;13469016;13494504;ml_deap_learning_filter_catboost_test_sharp_0.8;01-04-2020;3;54;COMPLETED;-1.31544078949579;62500.0;1.33259896883068;-0.533397329883877
9;13469016;13494567;ml_deap_learning_filter_catboost_test_sharp_0.8;01-07-2020;6;55;COMPLETED;-0.674935836971576;62500.0;1.33259896883068;-0.533397329883877
10;13469016;13494630;ml_deap_learning_filter_catboost_test_sharp_0.8;01-10-2020;9;54;RUNNING;-0.625780401113414;55555.56;1.33259896883068;-0.533397329883877
11;13469016;13494634;ml_deap_learning_filter_catboost_test_sharp_0.8;01-01-2021;12;54;RUNNING;-0.625780401113414;76923.08;1.33259896883068;-0.533397329883877
12;13469089;13494504;ml_deap_learning_filters_[catboost_rnn_random_forest]_f1_0.6;01-04-2020;3;11;COMPLETED;0.0;62500.0;9.05990747480786;0.0
13;13469089;13494567;ml_deap_learning_filters_[catboost_rnn_random_forest]_f1_0.6;01-07-2020;6;20;COMPLETED;0.0;62500.0;9.05990747480786;0.0
14;13469089;13494630;ml_deap_learning_filters_[catboost_rnn_random_forest]_f1_0.6;01-10-2020;9;23;RUNNING;0.0;55555.56;9.05990747480786;0.0
15;13469089;13494634;ml_deap_learning_filters_[catboost_rnn_random_forest]_f1_0.6;01-01-2021;12;23;RUNNING;0.0;76923.08;9.05990747480786;0.0
16;13474788;13494504;ml_deap_learning_filters_[catboost_rnn_random_forest]_f1_0.51;01-04-2020;3;50;COMPLETED;-1.06919252928425;62500.0;1.7430687202083;0.0634314354683649
17;13474788;13494567;ml_deap_learning_filters_[catboost_rnn_random_forest]_f1_0.51;01-07-2020;6;19;COMPLETED;0.00820548801207245;62500.0;1.7430687202083;0.0634314354683649
18;13474788;13494630;ml_deap_learning_filters_[catboost_rnn_random_forest]_f1_0.51;01-10-2020;9;20;RUNNING;0.110488492213483;55555.56;1.7430687202083;0.0634314354683649
19;13474788;13494634;ml_deap_learning_filters_[catboost_rnn_random_forest]_f1_0.51;01-01-2021;12;20;RUNNING;0.110488492213483;76923.08;1.7430687202083;0.0634314354683649
20;13476217;13494504;ml_deap_learning_filters_[catboost_rnn_random_forest]_f1_0.58;01-04-2020;3;52;COMPLETED;-1.23510133151779;62500.0;1.77030028085089;-0.410659241300633
21;13476217;13494567;ml_deap_learning_filters_[catboost_rnn_random_forest]_f1_0.58;01-07-2020;6;31;COMPLETED;-0.486081884512062;62500.0;1.77030028085089;-0.410659241300633
22;13476217;13494630;ml_deap_learning_filters_[catboost_rnn_random_forest]_f1_0.58;01-10-2020;9;31;RUNNING;-0.38956682842534;55555.56;1.77030028085089;-0.410659241300633
23;13476217;13494634;ml_deap_learning_filters_[catboost_rnn_random_forest]_f1_0.58;01-01-2021;12;31;RUNNING;-0.38956682842534;76923.08;1.77030028085089;-0.410659241300633
24;13476224;13494504;ml_deap_learning_filters_[catboost_rnn_random_forest_xgboost]_f1_0.52;01-04-2020;3;47;COMPLETED;-0.871752583759379;62500.0;2.86545275105831;0.587979954521465
25;13476224;13494567;ml_deap_learning_filters_[catboost_rnn_random_forest_xgboost]_f1_0.52;01-07-2020;6;47;COMPLETED;0.355561699636072;62500.0;2.86545275105831;0.587979954521465
26;13476224;13494630;ml_deap_learning_filters_[catboost_rnn_random_forest_xgboost]_f1_0.52;01-10-2020;9;47;RUNNING;0.590781357583428;55555.56;2.86545275105831;0.587979954521465
27;13476224;13494634;ml_deap_learning_filters_[catboost_rnn_random_forest_xgboost]_f1_0.52;01-01-2021;12;47;RUNNING;0.590781357583428;76923.08;2.86545275105831;0.587979954521465
28;13476805;13494504;ml_deap_learning_filters_[catboost_rnn_random_forest_xgboost]_f1_0.555;01-04-2020;3;16;COMPLETED;-0.282102851990641;62500.0;3.0175857362943;1.03687895140059
29;13476805;13494567;ml_deap_learning_filters_[catboost_rnn_random_forest_xgboost]_f1_0.555;01-07-2020;6;9;COMPLETED;0.921311996779217;62500.0;3.0175857362943;1.03687895140059
30;13476805;13494630;ml_deap_learning_filters_[catboost_rnn_random_forest_xgboost]_f1_0.555;01-10-2020;9;8;RUNNING;1.05143902754051;55555.56;3.0175857362943;1.03687895140059
31;13476805;13494634;ml_deap_learning_filters_[catboost_rnn_random_forest_xgboost]_f1_0.555;01-01-2021;12;8;RUNNING;1.05143902754051;76923.08;3.0175857362943;1.03687895140059
32;13479835;13494504;ml_deap_learning_filters_[Rnn+LSTM]r;01-04-2020;3;3;COMPLETED;2.80738620921037;62500.0;2.55686092722386;1.14470866725202
33;13479835;13494567;ml_deap_learning_filters_[Rnn+LSTM]r;01-07-2020;6;2;COMPLETED;2.31522047516473;62500.0;2.55686092722386;1.14470866725202
34;13479835;13494630;ml_deap_learning_filters_[Rnn+LSTM]r;01-10-2020;9;2;RUNNING;2.26065861933744;55555.56;2.55686092722386;1.14470866725202
35;13479835;13494634;ml_deap_learning_filters_[Rnn+LSTM]r;01-01-2021;12;2;RUNNING;2.26065861933744;76923.08;2.55686092722386;1.14470866725202
36;13479840;13494504;ml_deap_learning_filters_[Rnn+LSTM]_f3;01-04-2020;3;5;COMPLETED;1.29865386934182;62500.0;1.19299694291866;2.90397759975575
37;13479840;13494567;ml_deap_learning_filters_[Rnn+LSTM]_f3;01-07-2020;6;6;COMPLETED;1.17829564125996;62500.0;1.19299694291866;2.90397759975575
38;13479840;13494630;ml_deap_learning_filters_[Rnn+LSTM]_f3;01-10-2020;9;6;RUNNING;1.19299694291866;55555.56;1.19299694291866;2.90397759975575
39;13479840;13494634;ml_deap_learning_filters_[Rnn+LSTM]_f3;01-01-2021;12;6;RUNNING;1.19299694291866;76923.08;1.19299694291866;2.90397759975575
40;13479852;13494504;ml_deap_learning_filters_[Rnn+LSTM+catboost_2];01-04-2020;3;45;COMPLETED;-0.714283199502291;62500.0;2.95781959938456;0.150484431292382
41;13479852;13494567;ml_deap_learning_filters_[Rnn+LSTM+catboost_2];01-07-2020;6;48;COMPLETED;0.251472473650833;62500.0;2.95781959938456;0.150484431292382
42;13479852;13494630;ml_deap_learning_filters_[Rnn+LSTM+catboost_2];01-10-2020;9;48;RUNNING;0.174709855434573;55555.56;2.95781959938456;0.150484431292382
43;13479852;13494634;ml_deap_learning_filters_[Rnn+LSTM+catboost_2];01-01-2021;12;48;RUNNING;0.174709855434573;76923.08;2.95781959938456;0.150484431292382
44;13479857;13494504;ml_deap_learning_filters_[Rnn+LSTM+catboost_2_streamer_gradient];01-04-2020;3;51;COMPLETED;-1.14455836508484;62500.0;2.65148724613337;-0.352714631354739
45;13479857;13494567;ml_deap_learning_filters_[Rnn+LSTM+catboost_2_streamer_gradient];01-07-2020;6;28;COMPLETED;-0.250409175610786;62500.0;2.65148724613337;-0.352714631354739
46;13479857;13494630;ml_deap_learning_filters_[Rnn+LSTM+catboost_2_streamer_gradient];01-10-2020;9;30;RUNNING;-0.340812295222182;55555.56;2.65148724613337;-0.352714631354739
47;13479857;13494634;ml_deap_learning_filters_[Rnn+LSTM+catboost_2_streamer_gradient];01-01-2021;12;30;RUNNING;-0.340812295222182;76923.08;2.65148724613337;-0.352714631354739
48;13479864;13494504;ml_deap_learning_filters_[Ridge]_all;01-04-2020;3;53;COMPLETED;-1.23595518837281;62500.0;2.90486366391313;-0.686648226952795
49;13479864;13494567;ml_deap_learning_filters_[Ridge]_all;01-07-2020;6;54;COMPLETED;-0.65755858895336;62500.0;2.90486366391313;-0.686648226952795
50;13479864;13494630;ml_deap_learning_filters_[Ridge]_all;01-10-2020;9;55;RUNNING;-0.684817541973706;55555.56;2.90486366391313;-0.686648226952795
51;13479864;13494634;ml_deap_learning_filters_[Ridge]_all;01-01-2021;12;55;RUNNING;-0.684817541973706;76923.08;2.90486366391313;-0.686648226952795
52;13479869;13494504;ml_deap_learning_filters_[Ridge]_sharding;01-04-2020;3;14;COMPLETED;-0.15652295158483;62500.0;1.3052372726418;1.97117276771247
53;13479869;13494567;ml_deap_learning_filters_[Ridge]_sharding;01-07-2020;6;4;COMPLETED;1.33542864304701;62500.0;1.3052372726418;1.97117276771247
54;13479869;13494630;ml_deap_learning_filters_[Ridge]_sharding;01-10-2020;9;4;RUNNING;1.3052372726418;55555.56;1.3052372726418;1.97117276771247
55;13479869;13494634;ml_deap_learning_filters_[Ridge]_sharding;01-01-2021;12;4;RUNNING;1.3052372726418;76923.08;1.3052372726418;1.97117276771247
56;13479874;13494504;ml_deap_learning_filters_[RandomForest+Rnn+LSTM+spoofing];01-04-2020;3;48;COMPLETED;-1.02201142522205;62500.0;2.81892184994056;0.122080330275925
57;13479874;13494567;ml_deap_learning_filters_[RandomForest+Rnn+LSTM+spoofing];01-07-2020;6;18;COMPLETED;0.0660917084848141;62500.0;2.81892184994056;0.122080330275925
58;13479874;13494630;ml_deap_learning_filters_[RandomForest+Rnn+LSTM+spoofing];01-10-2020;9;21;RUNNING;0.0875246356682964;55555.56;2.81892184994056;0.122080330275925
59;13479874;13494634;ml_deap_learning_filters_[RandomForest+Rnn+LSTM+spoofing];01-01-2021;12;21;RUNNING;0.0875246356682964;76923.08;2.81892184994056;0.122080330275925
60;13483045;13494504;ml_deap_learning_filters_[Ridge]_f.45;01-04-2020;3;44;COMPLETED;-0.368479838646659;62500.0;3.37323644629268;0.385440729559362
61;13483045;13494567;ml_deap_learning_filters_[Ridge]_f.45;01-07-2020;6;12;COMPLETED;0.427990096792867;62500.0;3.37323644629268;0.385440729559362
62;13483045;13494630;ml_deap_learning_filters_[Ridge]_f.45;01-10-2020;9;14;RUNNING;0.347946458505141;55555.56;3.37323644629268;0.385440729559362
63;13483045;13494634;ml_deap_learning_filters_[Ridge]_f.45;01-01-2021;12;14;RUNNING;0.347946458505141;76923.08;3.37323644629268;0.385440729559362
64;13483288;13494504;ml_deap_learning_filters_[LSTM];01-04-2020;3;46;COMPLETED;-0.865759809578512;62500.0;3.87983587835497;-0.169699150528634
65;13483288;13494567;ml_deap_learning_filters_[LSTM];01-07-2020;6;25;COMPLETED;-0.176894134832553;62500.0;3.87983587835497;-0.169699150528634
66;13483288;13494630;ml_deap_learning_filters_[LSTM];01-10-2020;9;28;RUNNING;-0.194300543595635;55555.56;3.87983587835497;-0.169699150528634
67;13483288;13494634;ml_deap_learning_filters_[LSTM];01-01-2021;12;28;RUNNING;-0.194300543595635;76923.08;3.87983587835497;-0.169699150528634
68;13514088;13540741;ml_deap_learning_filters_ad;01-05-2020;3;35;STOPPED;-1.49004953720451;16666.66;2.03511471018283;-0.403504590811237
69;13514088;13571648;ml_deap_learning_filters_ad;01-05-2020;3;35;COMPLETED;-1.49004953720451;31250.0;2.03511471018283;-0.403504590811237
70;13514088;13571668;ml_deap_learning_filters_ad;01-08-2020;6;25;RUNNING;-0.407123880865719;37037.04;2.03511471018283;-0.403504590811237
71;13514088;13571898;ml_deap_learning_filters_ad;01-11-2020;9;25;RUNNING;-0.407123880865719;57692.31;2.03511471018283;-0.403504590811237
72;13514088;13572017;ml_deap_learning_filters_ad;01-02-2021;12;25;RUNNING;-0.407123880865719;66666.67;2.03511471018283;-0.403504590811237
73;13516766;13571648;ml_deap_learning_multik_5_0;01-05-2020;3;4;COMPLETED;2.21449286932703;31250.0;2.31888175281796;1.33800530488081
74;13516766;13540741;ml_deap_learning_multik_5_0;01-05-2020;3;4;STOPPED;2.21449286932703;16666.66;2.31888175281796;1.33800530488081
75;13516766;13571668;ml_deap_learning_multik_5_0;01-08-2020;6;3;RUNNING;1.52043071680585;37037.04;2.31888175281796;1.33800530488081
76;13516766;13571898;ml_deap_learning_multik_5_0;01-11-2020;9;3;RUNNING;1.52043071680585;57692.31;2.31888175281796;1.33800530488081
77;13516766;13572017;ml_deap_learning_multik_5_0;01-02-2021;12;3;RUNNING;1.52043071680585;66666.67;2.31888175281796;1.33800530488081
78;13520957;13540741;ml_deap_learning_multik_11_0;01-05-2020;3;50;STOPPED;2.14398927551002;16666.66;1.74379984806957;0.113709406909723
79;13520957;13571648;ml_deap_learning_multik_11_0;01-05-2020;3;50;COMPLETED;2.14398927551002;31250.0;1.74379984806957;0.113709406909723
80;13520957;13571668;ml_deap_learning_multik_11_0;01-08-2020;6;58;RUNNING;-0.0260311647357858;37037.04;1.74379984806957;0.113709406909723
81;13520957;13571898;ml_deap_learning_multik_11_0;01-11-2020;9;58;RUNNING;-0.0260311647357858;57692.31;1.74379984806957;0.113709406909723
82;13520957;13572017;ml_deap_learning_multik_11_0;01-02-2021;12;58;RUNNING;-0.0260311647357858;66666.67;1.74379984806957;0.113709406909723
83;13523470;13540741;ml_deap_learning_filters_ad_42;01-05-2020;3;8;STOPPED;0.327396180680359;16666.66;1.65030969286665;-0.872396914093391
84;13523470;13571648;ml_deap_learning_filters_ad_42;01-05-2020;3;8;COMPLETED;0.327396180680359;31250.0;1.65030969286665;-0.872396914093391
85;13523470;13571668;ml_deap_learning_filters_ad_42;01-08-2020;6;38;RUNNING;-0.888632933286514;37037.04;1.65030969286665;-0.872396914093391
86;13523470;13571898;ml_deap_learning_filters_ad_42;01-11-2020;9;38;RUNNING;-0.888632933286514;57692.31;1.65030969286665;-0.872396914093391
87;13523470;13572017;ml_deap_learning_filters_ad_42;01-02-2021;12;38;RUNNING;-0.888632933286514;66666.67;1.65030969286665;-0.872396914093391
88;13523475;13571648;ml_deap_learning_filters_ad_32;01-05-2020;3;55;COMPLETED;-0.615817269043194;31250.0;2.46505099186606;-1.69221504448652
89;13523475;13540741;ml_deap_learning_filters_ad_32;01-05-2020;3;55;STOPPED;-0.615817269043194;16666.66;2.46505099186606;-1.69221504448652
90;13523475;13571668;ml_deap_learning_filters_ad_32;01-08-2020;6;49;RUNNING;-1.71649354127807;37037.04;2.46505099186606;-1.69221504448652
91;13523475;13571898;ml_deap_learning_filters_ad_32;01-11-2020;9;49;RUNNING;-1.71649354127807;57692.31;2.46505099186606;-1.69221504448652
92;13523475;13572017;ml_deap_learning_filters_ad_32;01-02-2021;12;49;RUNNING;-1.71649354127807;66666.67;2.46505099186606;-1.69221504448652
93;13523493;13571648;ml_deap_learning_filters_ad_32_clone_with_up_in_Sharp;01-05-2020;3;54;COMPLETED;-0.615817269043194;31250.0;11.8330148193947;-1.76417101933889
94;13523493;13540741;ml_deap_learning_filters_ad_32_clone_with_up_in_Sharp;01-05-2020;3;54;STOPPED;-0.615817269043194;16666.66;11.8330148193947;-1.76417101933889
95;13523493;13571668;ml_deap_learning_filters_ad_32_clone_with_up_in_Sharp;01-08-2020;6;67;RUNNING;-1.78887893202495;37037.04;11.8330148193947;-1.76417101933889
96;13523493;13571898;ml_deap_learning_filters_ad_32_clone_with_up_in_Sharp;01-11-2020;9;67;RUNNING;-1.78887893202495;57692.31;11.8330148193947;-1.76417101933889
97;13523493;13572017;ml_deap_learning_filters_ad_32_clone_with_up_in_Sharp;01-02-2021;12;67;RUNNING;-1.78887893202495;66666.67;11.8330148193947;-1.76417101933889
98;13523964;13571648;ml_deap_learning_filters_two;01-05-2020;3;49;COMPLETED;2.21495996108064;31250.0;2.26035907443388;0.0109956919672549
99;13523964;13540741;ml_deap_learning_filters_two;01-05-2020;3;3;STOPPED;2.21495996108064;16666.66;2.26035907443388;0.0109956919672549
100;13523964;13571668;ml_deap_learning_filters_two;01-08-2020;6;56;RUNNING;0.031092452983594;37037.04;2.26035907443388;0.0109956919672549
101;13523964;13571898;ml_deap_learning_filters_two;01-11-2020;9;56;RUNNING;0.031092452983594;57692.31;2.26035907443388;0.0109956919672549
102;13523964;13572017;ml_deap_learning_filters_two;01-02-2021;12;56;RUNNING;0.031092452983594;66666.67;2.26035907443388;0.0109956919672549
103;13523977;13540741;ml_deap_learning_filters_two_clone_with_sharpe_up;01-05-2020;3;49;STOPPED;2.21495996108064;16666.66;21.8159124819446;0.075914410458773
104;13523977;13571648;ml_deap_learning_filters_two_clone_with_sharpe_up;01-05-2020;3;3;COMPLETED;2.21495996108064;31250.0;21.8159124819446;0.075914410458773
105;13523977;13571668;ml_deap_learning_filters_two_clone_with_sharpe_up;01-08-2020;6;13;RUNNING;0.0980715642629124;37037.04;21.8159124819446;0.075914410458773
106;13523977;13571898;ml_deap_learning_filters_two_clone_with_sharpe_up;01-11-2020;9;13;RUNNING;0.0980715642629124;57692.31;21.8159124819446;0.075914410458773
107;13523977;13572017;ml_deap_learning_filters_two_clone_with_sharpe_up;01-02-2021;12;13;RUNNING;0.0980715642629124;66666.67;21.8159124819446;0.075914410458773
108;13534004;13540741;ml_deap_learning_filters_tri;01-05-2020;3;58;STOPPED;-0.939935964003988;16666.66;2.85795525520691;-0.0591838157246702
109;13534004;13571648;ml_deap_learning_filters_tri;01-05-2020;3;58;COMPLETED;-0.939935964003988;31250.0;2.85795525520691;-0.0591838157246702
110;13534004;13571668;ml_deap_learning_filters_tri;01-08-2020;6;16;RUNNING;-0.0945205874489564;37037.04;2.85795525520691;-0.0591838157246702
111;13534004;13571898;ml_deap_learning_filters_tri;01-11-2020;9;16;RUNNING;-0.0945205874489564;57692.31;2.85795525520691;-0.0591838157246702
112;13534004;13572017;ml_deap_learning_filters_tri;01-02-2021;12;16;RUNNING;-0.0945205874489564;66666.67;2.85795525520691;-0.0591838157246702
113;13534014;13540741;ml_deap_learning_filters_tri_clone_sharp_up;01-05-2020;3;57;STOPPED;-0.939935964003988;16666.66;16.604103625858;-0.131932753120107
114;13534014;13571648;ml_deap_learning_filters_tri_clone_sharp_up;01-05-2020;3;57;COMPLETED;-0.939935964003988;31250.0;16.604103625858;-0.131932753120107
115;13534014;13571668;ml_deap_learning_filters_tri_clone_sharp_up;01-08-2020;6;59;RUNNING;-0.16656736233622;37037.04;16.604103625858;-0.131932753120107
116;13534014;13571898;ml_deap_learning_filters_tri_clone_sharp_up;01-11-2020;9;59;RUNNING;-0.16656736233622;57692.31;16.604103625858;-0.131932753120107
117;13534014;13572017;ml_deap_learning_filters_tri_clone_sharp_up;01-02-2021;12;59;RUNNING;-0.16656736233622;66666.67;16.604103625858;-0.131932753120107
118;13534104;13571648;ml_deap_learning_filters_for;01-05-2020;3;56;COMPLETED;-0.721009232610029;31250.0;2.80339689749274;-0.570707495807256
119;13534104;13540741;ml_deap_learning_filters_for;01-05-2020;3;18;STOPPED;-0.721009232610029;16666.66;2.80339689749274;-0.570707495807256
120;13534104;13571668;ml_deap_learning_filters_for;01-08-2020;6;31;RUNNING;-0.572696834290149;37037.04;2.80339689749274;-0.570707495807256
121;13534104;13571898;ml_deap_learning_filters_for;01-11-2020;9;31;RUNNING;-0.572696834290149;57692.31;2.80339689749274;-0.570707495807256
122;13534104;13572017;ml_deap_learning_filters_for;01-02-2021;12;60;RUNNING;-0.572696834290149;66666.67;2.80339689749274;-0.570707495807256
123;13534117;13540741;ml_deap_learning_filters_for_clone_sharp_up;01-05-2020;3;56;STOPPED;-0.721009232610029;16666.66;27.0415418856319;-0.570707495807256
124;13534117;13571648;ml_deap_learning_filters_for_clone_sharp_up;01-05-2020;3;18;COMPLETED;-0.721009232610029;31250.0;27.0415418856319;-0.570707495807256
125;13534117;13571668;ml_deap_learning_filters_for_clone_sharp_up;01-08-2020;6;60;RUNNING;-0.572696834290149;37037.04;27.0415418856319;-0.570707495807256
126;13534117;13571898;ml_deap_learning_filters_for_clone_sharp_up;01-11-2020;9;60;RUNNING;-0.572696834290149;57692.31;27.0415418856319;-0.570707495807256
127;13534117;13572017;ml_deap_learning_filters_for_clone_sharp_up;01-02-2021;12;31;RUNNING;-0.572696834290149;66666.67;27.0415418856319;-0.570707495807256
128;13543263;13571652;ml_deap_learning_filters_garberg;01-06-2020;3;3;COMPLETED;2.20682156992865;31250.0;2.24138703070586;0.719350065399411
129;13543263;13571673;ml_deap_learning_filters_garberg;01-09-2020;6;2;RUNNING;1.82157596764464;37037.04;2.24138703070586;0.719350065399411
130;13543263;13571904;ml_deap_learning_filters_garberg;01-12-2020;9;2;RUNNING;1.82157596764464;57692.31;2.24138703070586;0.719350065399411
131;13543263;13572028;ml_deap_learning_filters_garberg;01-03-2021;12;2;RUNNING;1.82157596764464;66666.67;2.24138703070586;0.719350065399411
132;13543268;13571652;ml_deap_learning_filters_garberg_clone_with_sharp_up;01-06-2020;3;21;COMPLETED;0.0;31250.0;11.3208942950327;0.0
133;13543268;13571673;ml_deap_learning_filters_garberg_clone_with_sharp_up;01-09-2020;6;21;RUNNING;0.0;37037.04;11.3208942950327;0.0
134;13543268;13571904;ml_deap_learning_filters_garberg_clone_with_sharp_up;01-12-2020;9;21;RUNNING;0.0;57692.31;11.3208942950327;0.0
135;13543268;13572028;ml_deap_learning_filters_garberg_clone_with_sharp_up;01-03-2021;12;21;RUNNING;0.0;66666.67;11.3208942950327;0.0
136;13595836;13571652;ml_deap_learning_filters_triad_9_;01-06-2020;3;4;COMPLETED;2.19860855450776;31250.0;2.19860855450776;-0.187155303040251
137;13595836;13571673;ml_deap_learning_filters_triad_9_;01-09-2020;6;30;RUNNING;-0.190319702101872;37037.04;2.19860855450776;-0.187155303040251
138;13595836;13571904;ml_deap_learning_filters_triad_9_;01-12-2020;9;30;RUNNING;-0.190319702101872;57692.31;2.19860855450776;-0.187155303040251
139;13595836;13572028;ml_deap_learning_filters_triad_9_;01-03-2021;12;30;RUNNING;-0.190319702101872;66666.67;2.19860855450776;-0.187155303040251
140;13605071;13571652;ml_deap_learning_filters_triad_49_;01-06-2020;3;66;COMPLETED;0.543814251481588;31250.0;1.90119644577687;-0.420964670215533
141;13605071;13571673;ml_deap_learning_filters_triad_49_;01-09-2020;6;63;RUNNING;-0.425436277981363;37037.04;1.90119644577687;-0.420964670215533
142;13605071;13571904;ml_deap_learning_filters_triad_49_;01-12-2020;9;63;RUNNING;-0.425436277981363;57692.31;1.90119644577687;-0.420964670215533
143;13605071;13572028;ml_deap_learning_filters_triad_49_;01-03-2021;12;63;RUNNING;-0.425436277981363;66666.67;1.90119644577687;-0.420964670215533
144;13616904;13571652;ml_deap_learning_filters_49_;01-06-2020;3;13;COMPLETED;0.978847784635054;31250.0;1.62709835361637;-0.791570112820421
145;13616904;13571673;ml_deap_learning_filters_49_;01-09-2020;6;39;RUNNING;-0.778536528703911;37037.04;1.62709835361637;-0.791570112820421
146;13616904;13571904;ml_deap_learning_filters_49_;01-12-2020;9;39;RUNNING;-0.778536528703911;57692.31;1.62709835361637;-0.791570112820421
147;13616904;13572028;ml_deap_learning_filters_49_;01-03-2021;12;39;RUNNING;-0.778536528703911;66666.67;1.62709835361637;-0.791570112820421
148;13616938;13571652;ml_deap_learning_filters_13_;01-06-2020;3;65;COMPLETED;0.745366135903737;31250.0;1.80440126126465;-0.886272212627504
149;13616938;13571673;ml_deap_learning_filters_13_;01-09-2020;6;67;RUNNING;-0.882857374832389;37037.04;1.80440126126465;-0.886272212627504
150;13616938;13571904;ml_deap_learning_filters_13_;01-12-2020;9;67;RUNNING;-0.882857374832389;57692.31;1.80440126126465;-0.886272212627504
151;13616938;13572028;ml_deap_learning_filters_13_;01-03-2021;12;67;RUNNING;-0.882857374832389;66666.67;1.80440126126465;-0.886272212627504
152;13617612;13571652;ml_deap_learning_filters_20_;01-06-2020;3;7;COMPLETED;1.72857375495745;31250.0;1.72454642734723;1.23886093976249
153;13617612;13571673;ml_deap_learning_filters_20_;01-09-2020;6;8;RUNNING;1.2199779726442;37037.04;1.72454642734723;1.23886093976249
154;13617612;13571904;ml_deap_learning_filters_20_;01-12-2020;9;8;RUNNING;1.2199779726442;57692.31;1.72454642734723;1.23886093976249
155;13617612;13572028;ml_deap_learning_filters_20_;01-03-2021;12;8;RUNNING;1.2199779726442;66666.67;1.72454642734723;1.23886093976249
156;13617669;13571652;ml_deap_learning_filters_[Rnn+LSTM+Ridge];01-06-2020;3;23;COMPLETED;0.0;31250.0;1.35689608977748;-0.099489215190558
157;13617669;13571673;ml_deap_learning_filters_[Rnn+LSTM+Ridge];01-09-2020;6;58;RUNNING;-0.188064146010062;37037.04;1.35689608977748;-0.099489215190558
158;13617669;13571904;ml_deap_learning_filters_[Rnn+LSTM+Ridge];01-12-2020;9;58;RUNNING;-0.188064146010062;57692.31;1.35689608977748;-0.099489215190558
159;13617669;13572028;ml_deap_learning_filters_[Rnn+LSTM+Ridge];01-03-2021;12;58;RUNNING;-0.188064146010062;66666.67;1.35689608977748;-0.099489215190558
160;13617749;13571673;ml_deap_learning_filters_[Rnn+LSTM+Ridge_];01-09-2020;6;29;RUNNING;-0.188063925502264;37037.04;1.27379952412914;-0.0994889799740631
161;13617749;13571904;ml_deap_learning_filters_[Rnn+LSTM+Ridge_];01-12-2020;9;29;RUNNING;-0.188063925502264;57692.31;1.27379952412914;-0.0994889799740631
162;13617749;13572028;ml_deap_learning_filters_[Rnn+LSTM+Ridge_];01-03-2021;12;29;RUNNING;-0.188063925502264;66666.67;1.27379952412914;-0.0994889799740631
163;13625912;13571656;ml_deap_learning_filters_[Rnn+LSTM+Ridge++];01-07-2020;3;75;COMPLETED;0.451867950180603;31250.0;0.439196017621801;-0.187728790975225
164;13625912;13571887;ml_deap_learning_filters_[Rnn+LSTM+Ridge++];01-10-2020;6;75;RUNNING;0.439196017621801;37037.04;0.439196017621801;-0.187728790975225
165;13625912;13572013;ml_deap_learning_filters_[Rnn+LSTM+Ridge++];01-01-2021;9;75;RUNNING;0.439196017621801;57692.31;0.439196017621801;-0.187728790975225
166;13625912;13572033;ml_deap_learning_filters_[Rnn+LSTM+Ridge++];01-04-2021;12;75;RUNNING;0.439196017621801;66666.67;0.439196017621801;-0.187728790975225
167;13625965;13571656;ml_deap_learning_filters_[Rnn+LSTM+Ridge+++];01-07-2020;3;18;COMPLETED;1.2795061607631;31250.0;1.28003627836341;-0.380422817843506
168;13625965;13571887;ml_deap_learning_filters_[Rnn+LSTM+Ridge+++];01-10-2020;6;24;RUNNING;0.449763478416967;37037.04;1.28003627836341;-0.380422817843506
169;13625965;13572013;ml_deap_learning_filters_[Rnn+LSTM+Ridge+++];01-01-2021;9;24;RUNNING;0.449763478416967;57692.31;1.28003627836341;-0.380422817843506
170;13625965;13572033;ml_deap_learning_filters_[Rnn+LSTM+Ridge+++];01-04-2021;12;24;RUNNING;0.449763478416967;66666.67;1.28003627836341;-0.380422817843506
171;13625996;13571656;ml_deap_learning_filters_[Rnn+LSTM+];01-07-2020;3;73;COMPLETED;1.10451389450474;31250.0;1.10706827062327;-0.59246863418435
172;13625996;13571887;ml_deap_learning_filters_[Rnn+LSTM+];01-10-2020;6;74;RUNNING;0.641782541526139;37037.04;1.10706827062327;-0.59246863418435
173;13625996;13572013;ml_deap_learning_filters_[Rnn+LSTM+];01-01-2021;9;74;RUNNING;0.641782541526139;57692.31;1.10706827062327;-0.59246863418435
174;13625996;13572033;ml_deap_learning_filters_[Rnn+LSTM+];01-04-2021;12;74;RUNNING;0.641782541526139;66666.67;1.10706827062327;-0.59246863418435
175;13628072;13571656;ml_deap_learning_filters_[RF];01-07-2020;3;24;COMPLETED;0.576912357503745;31250.0;2.02222527908787;1.0707064601051
176;13628072;13571887;ml_deap_learning_filters_[RF];01-10-2020;6;17;RUNNING;1.26332827247924;37037.04;2.02222527908787;1.0707064601051
177;13628072;13572013;ml_deap_learning_filters_[RF];01-01-2021;9;17;RUNNING;1.26332827247924;57692.31;2.02222527908787;1.0707064601051
178;13628072;13572033;ml_deap_learning_filters_[RF];01-04-2021;12;17;RUNNING;1.26332827247924;66666.67;2.02222527908787;1.0707064601051
179;13630549;13571656;ml_deap_learning_filters_[for_01];01-07-2020;3;14;COMPLETED;1.97250573304493;31250.0;1.97255517179772;3.19078412180625
180;13630549;13571887;ml_deap_learning_filters_[for_01];01-10-2020;6;14;RUNNING;1.97255517179772;37037.04;1.97255517179772;3.19078412180625
181;13630549;13572013;ml_deap_learning_filters_[for_01];01-01-2021;9;14;RUNNING;1.97255517179772;57692.31;1.97255517179772;3.19078412180625
182;13630549;13572033;ml_deap_learning_filters_[for_01];01-04-2021;12;14;RUNNING;1.97255517179772;66666.67;1.97255517179772;3.19078412180625
183;13636279;13571656;ml_deap_learning_filters_[Ridge_FP_01];01-07-2020;3;21;COMPLETED;0.930039607080707;31250.0;2.29915837644968;-1.20490107154959
184;13636279;13571887;ml_deap_learning_filters_[Ridge_FP_01];01-10-2020;6;18;RUNNING;1.10671431634638;37037.04;2.29915837644968;-1.20490107154959
185;13636279;13572013;ml_deap_learning_filters_[Ridge_FP_01];01-01-2021;9;18;RUNNING;1.10671431634638;57692.31;2.29915837644968;-1.20490107154959
186;13636279;13572033;ml_deap_learning_filters_[Ridge_FP_01];01-04-2021;12;18;RUNNING;1.10671431634638;66666.67;2.29915837644968;-1.20490107154959
187;13636728;13571656;ml_deap_learning_filters_[Ridge+FP_02];01-07-2020;3;13;COMPLETED;2.13698510252993;31250.0;2.10514643828583;-0.24136022323678
188;13636728;13571887;ml_deap_learning_filters_[Ridge+FP_02];01-10-2020;6;12;RUNNING;2.10514643828583;37037.04;2.10514643828583;-0.24136022323678
189;13636728;13572013;ml_deap_learning_filters_[Ridge+FP_02];01-01-2021;9;12;RUNNING;2.10514643828583;57692.31;2.10514643828583;-0.24136022323678
190;13636728;13572033;ml_deap_learning_filters_[Ridge+FP_02];01-04-2021;12;12;RUNNING;2.10514643828583;66666.67;2.10514643828583;-0.24136022323678
191;13637332;13571656;ml_deap_learning_filters_[Ridge+FP_03];01-07-2020;3;23;COMPLETED;0.624417235211362;31250.0;1.74133352347798;-0.987695908922259
192;13637332;13571887;ml_deap_learning_filters_[Ridge+FP_03];01-10-2020;6;23;RUNNING;0.598829886128573;37037.04;1.74133352347798;-0.987695908922259
193;13637332;13572013;ml_deap_learning_filters_[Ridge+FP_03];01-01-2021;9;23;RUNNING;0.598829886128573;57692.31;1.74133352347798;-0.987695908922259
194;13637332;13572033;ml_deap_learning_filters_[Ridge+FP_03];01-04-2021;12;23;RUNNING;0.598829886128573;66666.67;1.74133352347798;-0.987695908922259
195;13643442;13571656;ml_deap_learning_filters_[Ridge+FP_04];01-07-2020;3;47;COMPLETED;-1.42262510490489;31250.0;2.27841869837317;-1.8488875793516
196;13643442;13571887;ml_deap_learning_filters_[Ridge+FP_04];01-10-2020;6;46;RUNNING;-1.2436372707959;37037.04;2.27841869837317;-1.8488875793516
197;13643442;13572013;ml_deap_learning_filters_[Ridge+FP_04];01-01-2021;9;46;RUNNING;-1.2436372707959;57692.31;2.27841869837317;-1.8488875793516
198;13643442;13572033;ml_deap_learning_filters_[Ridge+FP_04];01-04-2021;12;46;RUNNING;-1.2436372707959;66666.67;2.27841869837317;-1.8488875793516
199;13648276;13571656;ml_deap_learning_filters[fortuna_001];01-07-2020;3;29;COMPLETED;0.0375981027659416;31250.0;0.0375981027659416;0.0012928141864816
200;13648276;13571887;ml_deap_learning_filters[fortuna_001];01-10-2020;6;28;RUNNING;0.0375981027659416;37037.04;0.0375981027659416;0.0012928141864816
201;13648276;13572013;ml_deap_learning_filters[fortuna_001];01-01-2021;9;28;RUNNING;0.0375981027659416;57692.31;0.0375981027659416;0.0012928141864816
202;13648276;13572033;ml_deap_learning_filters[fortuna_001];01-04-2021;12;28;RUNNING;0.0375981027659416;66666.67;0.0375981027659416;0.0012928141864816
203;13648333;13571656;ml_deap_learning_filters[fortuna_002];01-07-2020;3;82;COMPLETED;-0.0667754209256887;31250.0;-0.0541526705108554;0.00883736146801564
204;13648333;13571887;ml_deap_learning_filters[fortuna_002];01-10-2020;6;81;RUNNING;-0.0541526705108554;37037.04;-0.0541526705108554;0.00883736146801564
205;13648333;13572013;ml_deap_learning_filters[fortuna_002];01-01-2021;9;81;RUNNING;-0.0541526705108554;57692.31;-0.0541526705108554;0.00883736146801564
206;13648333;13572033;ml_deap_learning_filters[fortuna_002];01-04-2021;12;81;RUNNING;-0.0541526705108554;66666.67;-0.0541526705108554;0.00883736146801564
207;13648365;13571656;ml_deap_learning_filters[fortuna_003];01-07-2020;3;36;COMPLETED;-0.0850205994384001;31250.0;-0.0725947719395911;0.975605198224567
208;13648365;13571887;ml_deap_learning_filters[fortuna_003];01-10-2020;6;35;RUNNING;-0.0725947719395911;37037.04;-0.0725947719395911;0.975605198224567
209;13648365;13572013;ml_deap_learning_filters[fortuna_003];01-01-2021;9;35;RUNNING;-0.0725947719395911;57692.31;-0.0725947719395911;0.975605198224567
210;13648365;13572033;ml_deap_learning_filters[fortuna_003];01-04-2021;12;35;RUNNING;-0.0725947719395911;66666.67;-0.0725947719395911;0.975605198224567
211;13653349;13571656;ml_deap_learning_filters[KNN+Ridge+FP_088];01-07-2020;3;10;COMPLETED;3.40148436485817;31250.0;3.58810530908921;0.0278287112864441
212;13653349;13571887;ml_deap_learning_filters[KNN+Ridge+FP_088];01-10-2020;6;9;RUNNING;3.58810530908921;37037.04;3.58810530908921;0.0278287112864441
213;13653349;13572013;ml_deap_learning_filters[KNN+Ridge+FP_088];01-01-2021;9;9;RUNNING;3.58810530908921;57692.31;3.58810530908921;0.0278287112864441
214;13653349;13572033;ml_deap_learning_filters[KNN+Ridge+FP_088];01-04-2021;12;9;RUNNING;3.58810530908921;66666.67;3.58810530908921;0.0278287112864441
215;13653855;13571656;ml_deap_learning_filters[KNN+Ridge+FP_08];01-07-2020;3;71;COMPLETED;2.59907470558969;31250.0;2.63722896497881;-0.156496425649327
216;13653855;13571887;ml_deap_learning_filters[KNN+Ridge+FP_08];01-10-2020;6;71;RUNNING;2.63722896497881;37037.04;2.63722896497881;-0.156496425649327
217;13653855;13572013;ml_deap_learning_filters[KNN+Ridge+FP_08];01-01-2021;9;71;RUNNING;2.63722896497881;57692.31;2.63722896497881;-0.156496425649327
218;13653855;13572033;ml_deap_learning_filters[KNN+Ridge+FP_08];01-04-2021;12;71;RUNNING;2.63722896497881;66666.67;2.63722896497881;-0.156496425649327
219;13654108;13571656;ml_deap_learning_filters[KNN+Ridge+FP_8];01-07-2020;3;70;COMPLETED;3.18141575777846;31250.0;3.27909708059981;0.233282970489696
220;13654108;13571887;ml_deap_learning_filters[KNN+Ridge+FP_8];01-10-2020;6;70;RUNNING;3.27909708059981;37037.04;3.27909708059981;0.233282970489696
221;13654108;13572013;ml_deap_learning_filters[KNN+Ridge+FP_8];01-01-2021;9;70;RUNNING;3.27909708059981;57692.31;3.27909708059981;0.233282970489696
222;13654108;13572033;ml_deap_learning_filters[KNN+Ridge+FP_8];01-04-2021;12;70;RUNNING;3.27909708059981;66666.67;3.27909708059981;0.233282970489696
223;13799739;13906468;ml_deap_learning_filters[neutra , border]_test_platform_valid_v1;01-08-2020;3;73;RUNNING;-4.07976530456348;18518.52;3.54252969651768;-2.1292972003191
224;13799739;13906456;ml_deap_learning_filters[neutra , border]_test_platform_valid_v1;01-11-2020;6;73;RUNNING;-4.07976530456348;38461.54;3.54252969651768;-2.1292972003191
225;13799739;13906444;ml_deap_learning_filters[neutra , border]_test_platform_valid_v1;01-02-2021;9;73;RUNNING;-4.07976530456348;50000.0;3.54252969651768;-2.1292972003191
226;13799739;13906418;ml_deap_learning_filters[neutra , border]_test_platform_valid_v1;01-05-2021;12;73;RUNNING;-4.07976530456348;66666.67;3.54252969651768;-2.1292972003191
227;13803499;13906468;ml_deap_learning_filters[neutra , border]_test_platform_valid_v2;01-08-2020;3;74;RUNNING;-5.6459462108924;18518.52;5.56419176777018;-4.47076973554117
228;13803499;13906456;ml_deap_learning_filters[neutra , border]_test_platform_valid_v2;01-11-2020;6;74;RUNNING;-5.6459462108924;38461.54;5.56419176777018;-4.47076973554117
229;13803499;13906444;ml_deap_learning_filters[neutra , border]_test_platform_valid_v2;01-02-2021;9;74;RUNNING;-5.6459462108924;50000.0;5.56419176777018;-4.47076973554117
230;13803499;13906418;ml_deap_learning_filters[neutra , border]_test_platform_valid_v2;01-05-2021;12;74;RUNNING;-5.6459462108924;66666.67;5.56419176777018;-4.47076973554117
231;13827555;13906468;ml_deap_learning_filters[neutra , border]_test_platform_valid_v3;01-08-2020;3;48;RUNNING;-1.32663639313161;18518.52;1.42729966547911;-0.919616005897557
232;13827555;13906456;ml_deap_learning_filters[neutra , border]_test_platform_valid_v3;01-11-2020;6;48;RUNNING;-1.32663639313161;38461.54;1.42729966547911;-0.919616005897557
233;13827555;13906444;ml_deap_learning_filters[neutra , border]_test_platform_valid_v3;01-02-2021;9;48;RUNNING;-1.32663639313161;50000.0;1.42729966547911;-0.919616005897557
234;13827555;13906418;ml_deap_learning_filters[neutra , border]_test_platform_valid_v3;01-05-2021;12;48;RUNNING;-1.32663639313161;66666.67;1.42729966547911;-0.919616005897557
235;13829847;13906468;ml_deap_learning_filters[neutra , border]_test_platform_valid_v4;01-08-2020;3;40;RUNNING;-0.568071777167752;18518.52;1.46335645765348;-0.10900792017862
236;13829847;13906456;ml_deap_learning_filters[neutra , border]_test_platform_valid_v4;01-11-2020;6;40;RUNNING;-0.568071777167752;38461.54;1.46335645765348;-0.10900792017862
237;13829847;13906444;ml_deap_learning_filters[neutra , border]_test_platform_valid_v4;01-02-2021;9;40;RUNNING;-0.568071777167752;50000.0;1.46335645765348;-0.10900792017862
238;13829847;13906418;ml_deap_learning_filters[neutra , border]_test_platform_valid_v4;01-05-2021;12;40;RUNNING;-0.568071777167752;66666.67;1.46335645765348;-0.10900792017862
239;13832455;13906468;ml_deap_learning_filters[neutra , border]_test_platform_valid_f1;01-08-2020;3;26;RUNNING;1.05066747023207;18518.52;2.51396446497207;0.229916645253227
240;13832455;13906456;ml_deap_learning_filters[neutra , border]_test_platform_valid_f1;01-11-2020;6;26;RUNNING;1.05066747023207;38461.54;2.51396446497207;0.229916645253227
241;13832455;13906444;ml_deap_learning_filters[neutra , border]_test_platform_valid_f1;01-02-2021;9;26;RUNNING;1.05066747023207;50000.0;2.51396446497207;0.229916645253227
242;13832455;13906418;ml_deap_learning_filters[neutra , border]_test_platform_valid_f1;01-05-2021;12;26;RUNNING;1.05066747023207;66666.67;2.51396446497207;0.229916645253227
243;13843695;13906468;ml_deap_learning_filters[neutra , border]_test_platform_valid_f4;01-08-2020;3;7;RUNNING;3.02604327250726;18518.52;3.02604327250726;5.94483201712671
244;13843695;13906456;ml_deap_learning_filters[neutra , border]_test_platform_valid_f4;01-11-2020;6;7;RUNNING;3.02604327250726;38461.54;3.02604327250726;5.94483201712671
245;13843695;13906444;ml_deap_learning_filters[neutra , border]_test_platform_valid_f4;01-02-2021;9;7;RUNNING;3.02604327250726;50000.0;3.02604327250726;5.94483201712671
246;13843695;13906418;ml_deap_learning_filters[neutra , border]_test_platform_valid_f4;01-05-2021;12;7;RUNNING;3.02604327250726;66666.67;3.02604327250726;5.94483201712671
247;13852249;13906468;ml_deap_learning_filters[neutra , border]_test_platform_valid_f5;01-08-2020;3;62;RUNNING;-2.20616338706702;18518.52;3.63974442958289;0.0786303960831281
248;13852249;13906456;ml_deap_learning_filters[neutra , border]_test_platform_valid_f5;01-11-2020;6;62;RUNNING;-2.20616338706702;38461.54;3.63974442958289;0.0786303960831281
249;13852249;13906444;ml_deap_learning_filters[neutra , border]_test_platform_valid_f5;01-02-2021;9;62;RUNNING;-2.20616338706702;50000.0;3.63974442958289;0.0786303960831281
250;13852249;13906418;ml_deap_learning_filters[neutra , border]_test_platform_valid_f5;01-05-2021;12;62;RUNNING;-2.20616338706702;66666.67;3.63974442958289;0.0786303960831281
251;13854826;13906468;ml_deap_learning_filters[neutra , border]_test_platform_valid_fm1;01-08-2020;3;41;RUNNING;-0.739076066994945;18518.52;4.14297605672507;0.540319561578197
252;13854826;13906456;ml_deap_learning_filters[neutra , border]_test_platform_valid_fm1;01-11-2020;6;41;RUNNING;-0.739076066994945;38461.54;4.14297605672507;0.540319561578197
253;13854826;13906444;ml_deap_learning_filters[neutra , border]_test_platform_valid_fm1;01-02-2021;9;41;RUNNING;-0.739076066994945;50000.0;4.14297605672507;0.540319561578197
254;13854826;13906418;ml_deap_learning_filters[neutra , border]_test_platform_valid_fm1;01-05-2021;12;41;RUNNING;-0.739076066994945;66666.67;4.14297605672507;0.540319561578197
255;13854943;13906468;ml_deap_learning_filters[neutra , border]_test_platform_valid_fm2;01-08-2020;3;81;RUNNING;-1.35447441951022;18518.52;4.28139611532853;-0.460638459111913
256;13854943;13906456;ml_deap_learning_filters[neutra , border]_test_platform_valid_fm2;01-11-2020;6;81;RUNNING;-1.35447441951022;38461.54;4.28139611532853;-0.460638459111913
257;13854943;13906444;ml_deap_learning_filters[neutra , border]_test_platform_valid_fm2;01-02-2021;9;81;RUNNING;-1.35447441951022;50000.0;4.28139611532853;-0.460638459111913
258;13854943;13906418;ml_deap_learning_filters[neutra , border]_test_platform_valid_fm2;01-05-2021;12;81;RUNNING;-1.35447441951022;66666.67;4.28139611532853;-0.460638459111913
259;13856491;13906468;ml_deap_learning_filters[neutra , border]_test_platform_valid_fm3;01-08-2020;3;3;RUNNING;3.64003449583156;18518.52;3.76291824970701;1.56238222473009
260;13856491;13906456;ml_deap_learning_filters[neutra , border]_test_platform_valid_fm3;01-11-2020;6;3;RUNNING;3.64003449583156;38461.54;3.76291824970701;1.56238222473009
261;13856491;13906444;ml_deap_learning_filters[neutra , border]_test_platform_valid_fm3;01-02-2021;9;3;RUNNING;3.64003449583156;50000.0;3.76291824970701;1.56238222473009
262;13856491;13906418;ml_deap_learning_filters[neutra , border]_test_platform_valid_fm3;01-05-2021;12;3;RUNNING;3.64003449583156;66666.67;3.76291824970701;1.56238222473009
263;13856653;13906468;ml_deap_learning_filters[neutra , border]_test_platform_valid_fm4;01-08-2020;3;22;RUNNING;1.22206303374676;18518.52;3.41506564875241;-0.509682727850568
264;13856653;13906456;ml_deap_learning_filters[neutra , border]_test_platform_valid_fm4;01-11-2020;6;22;RUNNING;1.22206303374676;38461.54;3.41506564875241;-0.509682727850568
265;13856653;13906444;ml_deap_learning_filters[neutra , border]_test_platform_valid_fm4;01-02-2021;9;22;RUNNING;1.22206303374676;50000.0;3.41506564875241;-0.509682727850568
266;13856653;13906418;ml_deap_learning_filters[neutra , border]_test_platform_valid_fm4;01-05-2021;12;22;RUNNING;1.22206303374676;66666.67;3.41506564875241;-0.509682727850568
267;13860576;13906468;ml_deap_learning_filters[neutra , border]_test_platform_valid_fm5;01-08-2020;3;14;RUNNING;1.95815187557515;18518.52;1.95815187557515;6.85013880289597
268;13860576;13906456;ml_deap_learning_filters[neutra , border]_test_platform_valid_fm5;01-11-2020;6;14;RUNNING;1.95815187557515;38461.54;1.95815187557515;6.85013880289597
269;13860576;13906444;ml_deap_learning_filters[neutra , border]_test_platform_valid_fm5;01-02-2021;9;14;RUNNING;1.95815187557515;50000.0;1.95815187557515;6.85013880289597
270;13860576;13906418;ml_deap_learning_filters[neutra , border]_test_platform_valid_fm5;01-05-2021;12;14;RUNNING;1.95815187557515;66666.67;1.95815187557515;6.85013880289597
271;13861821;13906468;ml_deap_learning_filters[neutra , border]_test_platform_valid_fm6;01-08-2020;3;8;RUNNING;2.80891362764152;18518.52;2.80891362764152;5.39762379915887
272;13861821;13906456;ml_deap_learning_filters[neutra , border]_test_platform_valid_fm6;01-11-2020;6;8;RUNNING;2.80891362764152;38461.54;2.80891362764152;5.39762379915887
273;13861821;13906444;ml_deap_learning_filters[neutra , border]_test_platform_valid_fm6;01-02-2021;9;8;RUNNING;2.80891362764152;50000.0;2.80891362764152;5.39762379915887
274;13861821;13906418;ml_deap_learning_filters[neutra , border]_test_platform_valid_fm6;01-05-2021;12;8;RUNNING;2.80891362764152;66666.67;2.80891362764152;5.39762379915887
275;13865109;13906468;ml_deap_learning_filters[neutra , border]_test_platform_valid_fm8;01-08-2020;3;23;RUNNING;1.21042986547194;18518.52;5.20958095934952;0.890438494240148
276;13865109;13906456;ml_deap_learning_filters[neutra , border]_test_platform_valid_fm8;01-11-2020;6;23;RUNNING;1.21042986547194;38461.54;5.20958095934952;0.890438494240148
277;13865109;13906444;ml_deap_learning_filters[neutra , border]_test_platform_valid_fm8;01-02-2021;9;23;RUNNING;1.21042986547194;50000.0;5.20958095934952;0.890438494240148
278;13865109;13906418;ml_deap_learning_filters[neutra , border]_test_platform_valid_fm8;01-05-2021;12;23;RUNNING;1.21042986547194;66666.67;5.20958095934952;0.890438494240148
279;13898182;13906468;ml_deap_learning_filters[neutra , border]_test_platform_valid_fm_1;01-08-2020;3;37;RUNNING;-0.357420236936138;18518.52;4.04249861598042;-0.0666264378783964
280;13898182;13906456;ml_deap_learning_filters[neutra , border]_test_platform_valid_fm_1;01-11-2020;6;37;RUNNING;-0.357420236936138;38461.54;4.04249861598042;-0.0666264378783964
281;13898182;13906444;ml_deap_learning_filters[neutra , border]_test_platform_valid_fm_1;01-02-2021;9;37;RUNNING;-0.357420236936138;50000.0;4.04249861598042;-0.0666264378783964
282;13898182;13906418;ml_deap_learning_filters[neutra , border]_test_platform_valid_fm_1;01-05-2021;12;37;RUNNING;-0.357420236936138;66666.67;4.04249861598042;-0.0666264378783964
283;13898421;13906468;ml_deap_learning_filters[neutra , border]_test_platform_valid_fm_2;01-08-2020;3;70;RUNNING;-3.62128454370947;18518.52;3.9994805888028;-3.61149589462934
284;13898421;13906456;ml_deap_learning_filters[neutra , border]_test_platform_valid_fm_2;01-11-2020;6;70;RUNNING;-3.62128454370947;38461.54;3.9994805888028;-3.61149589462934
285;13898421;13906444;ml_deap_learning_filters[neutra , border]_test_platform_valid_fm_2;01-02-2021;9;70;RUNNING;-3.62128454370947;50000.0;3.9994805888028;-3.61149589462934
286;13898421;13906418;ml_deap_learning_filters[neutra , border]_test_platform_valid_fm_2;01-05-2021;12;70;RUNNING;-3.62128454370947;66666.67;3.9994805888028;-3.61149589462934
287;13902618;13906468;ml_deap_learning_filters[neutra , border]_test_platform_valid_fm_4;01-08-2020;3;21;RUNNING;1.25700988927018;18518.52;2.4294459548253;0.178659741515141
288;13902618;13906456;ml_deap_learning_filters[neutra , border]_test_platform_valid_fm_4;01-11-2020;6;21;RUNNING;1.25700988927018;38461.54;2.4294459548253;0.178659741515141
289;13902618;13906444;ml_deap_learning_filters[neutra , border]_test_platform_valid_fm_4;01-02-2021;9;21;RUNNING;1.25700988927018;50000.0;2.4294459548253;0.178659741515141
290;13902618;13906418;ml_deap_learning_filters[neutra , border]_test_platform_valid_fm_4;01-05-2021;12;21;RUNNING;1.25700988927018;66666.67;2.4294459548253;0.178659741515141
291;13907492;13906468;ml_deap_learning_filters[neutra , border]_test_platform_valid_fm_3;01-08-2020;3;11;RUNNING;2.41580189028724;18518.52;2.89261167870337;2.6119501331535
292;13907492;13906456;ml_deap_learning_filters[neutra , border]_test_platform_valid_fm_3;01-11-2020;6;11;RUNNING;2.41580189028724;38461.54;2.89261167870337;2.6119501331535
293;13907492;13906444;ml_deap_learning_filters[neutra , border]_test_platform_valid_fm_3;01-02-2021;9;11;RUNNING;2.41580189028724;50000.0;2.89261167870337;2.6119501331535
294;13907492;13906418;ml_deap_learning_filters[neutra , border]_test_platform_valid_fm_3;01-05-2021;12;11;RUNNING;2.41580189028724;66666.67;2.89261167870337;2.6119501331535
295;14223570;13906472;2020_05_ml_deap_learning_filters_fm_26_01;01-09-2020;3;11;RUNNING;2.69121984170404;18518.52;2.69121984170404;12.2738636166932
296;14223570;13906460;2020_05_ml_deap_learning_filters_fm_26_01;01-12-2020;6;11;RUNNING;2.69121984170404;38461.54;2.69121984170404;12.2738636166932
297;14223570;13906448;2020_05_ml_deap_learning_filters_fm_26_01;01-03-2021;9;11;RUNNING;2.69121984170404;50000.0;2.69121984170404;12.2738636166932
298;14223570;13906422;2020_05_ml_deap_learning_filters_fm_26_01;01-06-2021;12;11;RUNNING;2.69121984170404;66666.67;2.69121984170404;12.2738636166932
299;14236400;13906472;2020_05_ml_deap_learning_filters_fm_28_02;01-09-2020;3;15;RUNNING;2.61385629592862;18518.52;2.72993242994212;2.69106418374917
300;14236400;13906460;2020_05_ml_deap_learning_filters_fm_28_02;01-12-2020;6;15;RUNNING;2.61385629592862;38461.54;2.72993242994212;2.69106418374917
301;14236400;13906448;2020_05_ml_deap_learning_filters_fm_28_02;01-03-2021;9;15;RUNNING;2.61385629592862;50000.0;2.72993242994212;2.69106418374917
302;14236400;13906422;2020_05_ml_deap_learning_filters_fm_28_02;01-06-2021;12;15;RUNNING;2.61385629592862;66666.67;2.72993242994212;2.69106418374917
303;14242234;13906472;2020_05_ml_deap_learning_filters_fm_29_03_;01-09-2020;3;67;RUNNING;-1.00459447503406;18518.52;4.47232604012942;-1.00988801800387
304;14242234;13906460;2020_05_ml_deap_learning_filters_fm_29_03_;01-12-2020;6;67;RUNNING;-1.00459447503406;38461.54;4.47232604012942;-1.00988801800387
305;14242234;13906448;2020_05_ml_deap_learning_filters_fm_29_03_;01-03-2021;9;67;RUNNING;-1.00459447503406;50000.0;4.47232604012942;-1.00988801800387
306;14242234;13906422;2020_05_ml_deap_learning_filters_fm_29_03_;01-06-2021;12;67;RUNNING;-1.00459447503406;66666.67;4.47232604012942;-1.00988801800387
307;14242258;13906472;2020_05_ml_deap_learning_filters_fm_28_04;01-09-2020;3;60;RUNNING;-0.280608913795039;18518.52;4.02952603872516;-0.286686761118985
308;14242258;13906460;2020_05_ml_deap_learning_filters_fm_28_04;01-12-2020;6;60;RUNNING;-0.280608913795039;38461.54;4.02952603872516;-0.286686761118985
309;14242258;13906448;2020_05_ml_deap_learning_filters_fm_28_04;01-03-2021;9;60;RUNNING;-0.280608913795039;50000.0;4.02952603872516;-0.286686761118985
310;14242258;13906422;2020_05_ml_deap_learning_filters_fm_28_04;01-06-2021;12;60;RUNNING;-0.280608913795039;66666.67;4.02952603872516;-0.286686761118985
311;14243143;13906472;2020_05_ml_deap_learning_filters_fm_29_05;01-09-2020;3;47;RUNNING;0.47591505071262;18518.52;4.09179744718132;0.348282222283032
312;14243143;13906460;2020_05_ml_deap_learning_filters_fm_29_05;01-12-2020;6;47;RUNNING;0.47591505071262;38461.54;4.09179744718132;0.348282222283032
313;14243143;13906448;2020_05_ml_deap_learning_filters_fm_29_05;01-03-2021;9;47;RUNNING;0.47591505071262;50000.0;4.09179744718132;0.348282222283032
314;14243143;13906422;2020_05_ml_deap_learning_filters_fm_29_05;01-06-2021;12;47;RUNNING;0.47591505071262;66666.67;4.09179744718132;0.348282222283032
315;14243155;13906472;2020_05_ml_deap_learning_filters_fm_29_06;01-09-2020;3;40;RUNNING;1.14218620178567;18518.52;3.13651677037314;0.763115846027738
316;14243155;13906460;2020_05_ml_deap_learning_filters_fm_29_06;01-12-2020;6;40;RUNNING;1.14218620178567;38461.54;3.13651677037314;0.763115846027738
317;14243155;13906448;2020_05_ml_deap_learning_filters_fm_29_06;01-03-2021;9;40;RUNNING;1.14218620178567;50000.0;3.13651677037314;0.763115846027738
318;14243155;13906422;2020_05_ml_deap_learning_filters_fm_29_06;01-06-2021;12;40;RUNNING;1.14218620178567;66666.67;3.13651677037314;0.763115846027738
319;14246015;13906472;2020_05_ml_deap_learning_filters_fm_30_07;01-09-2020;3;39;RUNNING;1.18399456561933;18518.52;2.35182790021893;1.14273718743516
320;14246015;13906460;2020_05_ml_deap_learning_filters_fm_30_07;01-12-2020;6;39;RUNNING;1.18399456561933;38461.54;2.35182790021893;1.14273718743516
321;14246015;13906448;2020_05_ml_deap_learning_filters_fm_30_07;01-03-2021;9;39;RUNNING;1.18399456561933;50000.0;2.35182790021893;1.14273718743516
322;14246015;13906422;2020_05_ml_deap_learning_filters_fm_30_07;01-06-2021;12;39;RUNNING;1.18399456561933;66666.67;2.35182790021893;1.14273718743516
323;14246103;13906472;2020_05_ml_deap_learning_filters_fm_30_08;01-09-2020;3;35;RUNNING;1.32274173352413;18518.52;2.60494321135027;1.23289627096853
324;14246103;13906460;2020_05_ml_deap_learning_filters_fm_30_08;01-12-2020;6;35;RUNNING;1.32274173352413;38461.54;2.60494321135027;1.23289627096853
325;14246103;13906448;2020_05_ml_deap_learning_filters_fm_30_08;01-03-2021;9;35;RUNNING;1.32274173352413;50000.0;2.60494321135027;1.23289627096853
326;14246103;13906422;2020_05_ml_deap_learning_filters_fm_30_08;01-06-2021;12;35;RUNNING;1.32274173352413;66666.67;2.60494321135027;1.23289627096853
327;14247872;13906472;2020_05_ml_deap_learning_filters_fm_30_09;01-09-2020;3;62;RUNNING;-0.316966448609017;18518.52;2.91509633523148;-0.319742138613607
328;14247872;13906460;2020_05_ml_deap_learning_filters_fm_30_09;01-12-2020;6;62;RUNNING;-0.316966448609017;38461.54;2.91509633523148;-0.319742138613607
329;14247872;13906448;2020_05_ml_deap_learning_filters_fm_30_09;01-03-2021;9;62;RUNNING;-0.316966448609017;50000.0;2.91509633523148;-0.319742138613607
330;14247872;13906422;2020_05_ml_deap_learning_filters_fm_30_09;01-06-2021;12;62;RUNNING;-0.316966448609017;66666.67;2.91509633523148;-0.319742138613607
331;14247949;13906472;2020_05_ml_deap_learning_filters_fm_30_09_sharpe_up;01-09-2020;3;61;RUNNING;-0.316966448609017;18518.52;10.6594887087699;-0.319742138613607
332;14247949;13906460;2020_05_ml_deap_learning_filters_fm_30_09_sharpe_up;01-12-2020;6;61;RUNNING;-0.316966448609017;38461.54;10.6594887087699;-0.319742138613607
333;14247949;13906448;2020_05_ml_deap_learning_filters_fm_30_09_sharpe_up;01-03-2021;9;61;RUNNING;-0.316966448609017;50000.0;10.6594887087699;-0.319742138613607
334;14247949;13906422;2020_05_ml_deap_learning_filters_fm_30_09_sharpe_up;01-06-2021;12;61;RUNNING;-0.316966448609017;66666.67;10.6594887087699;-0.319742138613607
335;14248561;13906472;2020_05_ml_deap_learning_filters_fm_30_11_sharpe_up;01-09-2020;3;79;RUNNING;-2.50512894430763;18518.52;15.1219314199658;-2.59090844370778
336;14248561;13906460;2020_05_ml_deap_learning_filters_fm_30_11_sharpe_up;01-12-2020;6;79;RUNNING;-2.50512894430763;38461.54;15.1219314199658;-2.59090844370778
337;14248561;13906448;2020_05_ml_deap_learning_filters_fm_30_11_sharpe_up;01-03-2021;9;79;RUNNING;-2.50512894430763;50000.0;15.1219314199658;-2.59090844370778
338;14248561;13906422;2020_05_ml_deap_learning_filters_fm_30_11_sharpe_up;01-06-2021;12;79;RUNNING;-2.50512894430763;66666.67;15.1219314199658;-2.59090844370778
339;14248823;13906472;2020_05_ml_deap_learning_filters_fm_30_12_sharpe_up;01-09-2020;3;58;RUNNING;0.0;18518.52;3.99009469094793;0.0
340;14248823;13906460;2020_05_ml_deap_learning_filters_fm_30_12_sharpe_up;01-12-2020;6;58;RUNNING;0.0;38461.54;3.99009469094793;0.0
341;14248823;13906448;2020_05_ml_deap_learning_filters_fm_30_12_sharpe_up;01-03-2021;9;58;RUNNING;0.0;50000.0;3.99009469094793;0.0
342;14248823;13906422;2020_05_ml_deap_learning_filters_fm_30_12_sharpe_up;01-06-2021;12;58;RUNNING;0.0;66666.67;3.99009469094793;0.0
343;14250107;13906472;2020_05_ml_deap_learning_filters_fm_31_13;01-09-2020;3;57;RUNNING;0.0;18518.52;3.25279897840877;0.0
344;14250107;13906460;2020_05_ml_deap_learning_filters_fm_31_13;01-12-2020;6;57;RUNNING;0.0;38461.54;3.25279897840877;0.0
345;14250107;13906448;2020_05_ml_deap_learning_filters_fm_31_13;01-03-2021;9;57;RUNNING;0.0;50000.0;3.25279897840877;0.0
346;14250107;13906422;2020_05_ml_deap_learning_filters_fm_31_13;01-06-2021;12;57;RUNNING;0.0;66666.67;3.25279897840877;0.0
347;14250142;13906472;2020_05_ml_deap_learning_filters_fm_31_14_sharpe_up;01-09-2020;3;46;RUNNING;0.594184025553156;18518.52;20.8226721767336;0.248452899704538
348;14250142;13906460;2020_05_ml_deap_learning_filters_fm_31_14_sharpe_up;01-12-2020;6;46;RUNNING;0.594184025553156;38461.54;20.8226721767336;0.248452899704538
349;14250142;13906448;2020_05_ml_deap_learning_filters_fm_31_14_sharpe_up;01-03-2021;9;46;RUNNING;0.594184025553156;50000.0;20.8226721767336;0.248452899704538
350;14250142;13906422;2020_05_ml_deap_learning_filters_fm_31_14_sharpe_up;01-06-2021;12;46;RUNNING;0.594184025553156;66666.67;20.8226721767336;0.248452899704538
351;14250260;13906472;2020_05_ml_deap_learning_filters_fm_31_15;01-09-2020;3;21;RUNNING;1.942102376605;18518.52;3.3049710117222;1.58381132275473
352;14250260;13906460;2020_05_ml_deap_learning_filters_fm_31_15;01-12-2020;6;21;RUNNING;1.942102376605;38461.54;3.3049710117222;1.58381132275473
353;14250260;13906448;2020_05_ml_deap_learning_filters_fm_31_15;01-03-2021;9;21;RUNNING;1.942102376605;50000.0;3.3049710117222;1.58381132275473
354;14250260;13906422;2020_05_ml_deap_learning_filters_fm_31_15;01-06-2021;12;21;RUNNING;1.942102376605;66666.67;3.3049710117222;1.58381132275473
355;14250274;13906472;2020_05_ml_deap_learning_filters_fm_31_16_sharpe_up;01-09-2020;3;66;RUNNING;-0.937146584542672;18518.52;122.965447581015;-1.19332192658489
356;14250274;13906460;2020_05_ml_deap_learning_filters_fm_31_16_sharpe_up;01-12-2020;6;66;RUNNING;-0.937146584542672;38461.54;122.965447581015;-1.19332192658489
357;14250274;13906448;2020_05_ml_deap_learning_filters_fm_31_16_sharpe_up;01-03-2021;9;66;RUNNING;-0.937146584542672;50000.0;122.965447581015;-1.19332192658489
358;14250274;13906422;2020_05_ml_deap_learning_filters_fm_31_16_sharpe_up;01-06-2021;12;66;RUNNING;-0.937146584542672;66666.67;122.965447581015;-1.19332192658489
359;14250286;13906472;2020_05_ml_deap_learning_filters_fm_31_17_sharpe_up;01-09-2020;3;45;RUNNING;0.719106755566474;18518.52;105.199555479877;0.311677419753729
360;14250286;13906460;2020_05_ml_deap_learning_filters_fm_31_17_sharpe_up;01-12-2020;6;45;RUNNING;0.719106755566474;38461.54;105.199555479877;0.311677419753729
361;14250286;13906448;2020_05_ml_deap_learning_filters_fm_31_17_sharpe_up;01-03-2021;9;45;RUNNING;0.719106755566474;50000.0;105.199555479877;0.311677419753729
362;14250286;13906422;2020_05_ml_deap_learning_filters_fm_31_17_sharpe_up;01-06-2021;12;45;RUNNING;0.719106755566474;66666.67;105.199555479877;0.311677419753729
363;14250303;13906472;2020_05_ml_deap_learning_filters_fm_31_18_sharpe_up_;01-09-2020;3;2;RUNNING;5.35865184327437;18518.52;35.380607430624;5.50529681783576
364;14250303;13906460;2020_05_ml_deap_learning_filters_fm_31_18_sharpe_up_;01-12-2020;6;2;RUNNING;5.35865184327437;38461.54;35.380607430624;5.50529681783576
365;14250303;13906448;2020_05_ml_deap_learning_filters_fm_31_18_sharpe_up_;01-03-2021;9;2;RUNNING;5.35865184327437;50000.0;35.380607430624;5.50529681783576
366;14250303;13906422;2020_05_ml_deap_learning_filters_fm_31_18_sharpe_up_;01-06-2021;12;2;RUNNING;5.35865184327437;66666.67;35.380607430624;5.50529681783576
367;14250383;13906472;2020_05_ml_deap_learning_filters_fm_31_19;01-09-2020;3;76;RUNNING;-1.65801078660657;18518.52;3.1916798275589;-1.8163614237573
368;14250383;13906460;2020_05_ml_deap_learning_filters_fm_31_19;01-12-2020;6;76;RUNNING;-1.65801078660657;38461.54;3.1916798275589;-1.8163614237573
369;14250383;13906448;2020_05_ml_deap_learning_filters_fm_31_19;01-03-2021;9;76;RUNNING;-1.65801078660657;50000.0;3.1916798275589;-1.8163614237573
370;14250383;13906422;2020_05_ml_deap_learning_filters_fm_31_19;01-06-2021;12;76;RUNNING;-1.65801078660657;66666.67;3.1916798275589;-1.8163614237573
371;14250400;13906472;2020_05_ml_deap_learning_filters_fm_31_20_sharpe_up;01-09-2020;3;41;RUNNING;1.10131528155026;18518.52;109.758136137038;0.430801774856268
372;14250400;13906460;2020_05_ml_deap_learning_filters_fm_31_20_sharpe_up;01-12-2020;6;41;RUNNING;1.10131528155026;38461.54;109.758136137038;0.430801774856268
373;14250400;13906448;2020_05_ml_deap_learning_filters_fm_31_20_sharpe_up;01-03-2021;9;41;RUNNING;1.10131528155026;50000.0;109.758136137038;0.430801774856268
374;14250400;13906422;2020_05_ml_deap_learning_filters_fm_31_20_sharpe_up;01-06-2021;12;41;RUNNING;1.10131528155026;66666.67;109.758136137038;0.430801774856268
